[
    {
        "id": 1,
        "name": "Девяткино",
        "state": 0,
        "coord": [510, 45]
    }, {
        "id": 2,
        "name": "Гражданский проспект",
        "state": 0,
        "coord": [510, 79]
    }, {
        "id": 3,
        "name": "Академическая",
        "state": 0,
        "coord": [510, 109]
    }, {
        "id": 4,
        "name": "Политехническая",
        "state": 0,
        "coord": [510, 142]
    }, {
        "id": 5,
        "name": "Площадь мужества",
        "state": 0,
        "coord": [510, 171]
    }, {
        "id": 6,
        "name": "Лесная",
        "state": 0,
        "coord": [510, 203]
    }, {
        "id": 7,
        "name": "Выборгская",
        "state": 0,
        "coord": [510, 232]
    }, {
        "id": 8,
        "name": "Площадь Ленина",
        "state": 0,
        "coord": [510, 260]
    }, {
        "id": 9,
        "name": "Чернышевская",
        "state": 0,
        "coord": [510, 300]
    }, {
        "id": 10,
        "name": "Площадь восстания",
        "state": 0,
        "coord": [510, 329]
    }, {
        "id": 11,
        "name": "Владимирская",
        "state": 0,
        "coord": [471, 392]
    }, {
        "id": 12,
        "name": "Пушкинская",
        "state": 0,
        "coord": [405, 450]
    }, {
        "id": 13,
        "name": "Технологический институт 1",
        "state": 0,
        "coord": [354, 481]
    }, {
        "id": 14,
        "name": "Балтийская",
        "state": 0,
        "coord": [297, 524]
    }, {
        "id": 15,
        "name": "Нарвская",
        "state": 0,
        "coord": [233, 564]
    }, {
        "id": 16,
        "name": "Кировский завод",
        "state": 0,
        "coord": [233, 614]
    }, {
        "id": 17,
        "name": "Автово",
        "state": 0,
        "coord": [233, 650]
    }, {
        "id": 18,
        "name": "Ленинский проспект",
        "state": 0,
        "coord": [233, 695]
    }, {
        "id": 19,
        "name": "Проспект ветеранов",
        "state": 0,
        "coord": [233, 724]
    }, {
        "id": 20,
        "name": "Парнас",
        "state": 0,
        "coord": [354, 44]
    }, {
        "id": 21,
        "name": "Проспект просвещения",
        "state": 0,
        "coord": [354, 74]
    }, {
        "id": 22,
        "name": "Озерки",
        "state": 0,
        "coord": [354, 106]
    }, {
        "id": 23,
        "name": "Удельная",
        "state": 0,
        "coord": [354, 139]
    }, {
        "id": 24,
        "name": "Пионерская",
        "state": 0,
        "coord": [354, 166]
    }, {
        "id": 25,
        "name": "Черная речка",
        "state": 0,
        "coord": [354, 192]
    }, {
        "id": 26,
        "name": "Петроградская",
        "state": 0,
        "coord": [354, 237]
    }, {
        "id": 27,
        "name": "Горьковская",
        "state": 0,
        "coord": [354, 262]
    }, {
        "id": 28,
        "name": "Невский проспект",
        "state": 0,
        "coord": [354, 329]
    }, {
        "id": 29,
        "name": "Сенная площадь",
        "state": 0,
        "coord": [354, 392]
    }, {
        "id": 30,
        "name": "Технологический институт 2",
        "state": 0,
        "coord": [354, 481]
    }, {
        "id": 31,
        "name": "Фрунзенская",
        "state": 0,
        "coord": [354, 512]
    }, {
        "id": 32,
        "name": "Московские ворота",
        "state": 0,
        "coord": [354, 580]
    }, {
        "id": 33,
        "name": "Электросила",
        "state": 0,
        "coord": [354, 647]
    }, {
        "id": 34,
        "name": "Парк победы",
        "state": 0,
        "coord": [354, 673]
    }, {
        "id": 35,
        "name": "Московская",
        "state": 0,
        "coord": [354, 695]
    }, {
        "id": 36,
        "name": "Звездная",
        "state": 0,
        "coord": [354, 730]
    }, {
        "id": 37,
        "name": "Купчино",
        "state": 0,
        "coord": [354, 764]
    }, {
        "id": 38,
        "name": "Приморская",
        "state": 0,
        "coord": [142, 302],
        "style": {
            "margin": [10, -15]
        }
    }, {
        "id": 39,
        "name": "Василеостровская",
        "state": 0,
        "coord": [200, 329],
        "style": {
            "margin": [-10, -25]
        }
    }, {
        "id": 40,
        "name": "Гостинный двор",
        "state": 0,
        "coord": [354, 329],
        "style": {
            "margin": [0, -25]
        }
    }, {
        "id": 41,
        "name": "Маяковская",
        "state": 0,
        "coord": [510, 329],
        "style": {
            "margin": [0, -25]
        }
    }, {
        "id": 42,
        "name": "Площадь Александра Невского 1",
        "state": 0,
        "coord": [639, 392]
    }, {
        "id": 43,
        "name": "Елизаровская",
        "state": 0,
        "coord": [639, 620]
    }, {
        "id": 44,
        "name": "Ломоносовская",
        "state": 0,
        "coord": [639, 653]
    }, {
        "id": 45,
        "name": "Пролетарская",
        "state": 0,
        "coord": [639, 686]
    }, {
        "id": 46,
        "name": "Обухово",
        "state": 0,
        "coord": [639, 715]
    }, {
        "id": 47,
        "name": "Рыбацкое",
        "state": 0,
        "coord": [639, 745]
    }, {
        "id": 48,
        "name": "Улица Дыбенко",
        "state": 0,
        "coord": [703, 595]
    }, {
        "id": 49,
        "name": "Проспект большевиков",
        "state": 0,
        "coord": [703, 543]
    }, {
        "id": 50,
        "name": "Ладожская",
        "state": 0,
        "coord": [703, 480]
    }, {
        "id": 51,
        "name": "Новочеркасская",
        "state": 0,
        "coord": [703, 439]
    }, {
        "id": 52,
        "name": "Площадь Александра Невского 2",
        "state": 0,
        "coord": [639, 392]
    }, {
        "id": 53,
        "name": "Лиговский проспект",
        "state": 0,
        "coord": [574, 392],
        "style": {
            "margin": [-10, -30]
        }
    }, {
        "id": 54,
        "name": "Достоевская",
        "state": 0,
        "coord": [471, 392],
        "style": {
            "margin": [-10, 5]
        }
    }, {
        "id": 55,
        "name": "Спасская",
        "state": 0,
        "coord": [354, 392],
        "style": {
            "margin": [-10, -30]
        }
    }, {
        "id": 56,
        "name": "Театральная",
        "state": 2,
        "coord": [293, 392],
        "style": {
            "margin": [-10, 5]
        }
    }, {
        "id": 57,
        "name": "Комендантский проспект",
        "state": 0,
        "coord": [228, 133]
    }, {
        "id": 58,
        "name": "Старая деревня",
        "state": 0,
        "coord": [228, 163]
    }, {
        "id": 59,
        "name": "Крестовский остров",
        "state": 0,
        "coord": [228, 201]
    }, {
        "id": 60,
        "name": "Чкаловская",
        "state": 0,
        "coord": [228, 230]
    }, {
        "id": 61,
        "name": "Спортивная",
        "state": 0,
        "coord": [228, 250]
    }, {
        "id": 62,
        "name": "Адмиралтейская",
        "state": 0,
        "coord": [311, 352]
    }, {
        "id": 63,
        "name": "Садовая",
        "state": 0,
        "coord": [354, 392]
    }, {
        "id": 64,
        "name": "Звенигородская",
        "state": 0,
        "coord": [405, 450]
    }, {
        "id": 65,
        "name": "Обводной канал 1",
        "state": 0,
        "coord": [448, 500]
    }, {
        "id": 66,
        "name": "Волковская",
        "state": 0,
        "coord": [557, 584]
    }, {
        "id": 67,
        "name": "Бухарестская",
        "state": 0,
        "coord": [557, 624]
    }, {
        "id": 68,
        "name": "Международная",
        "state": 0,
        "coord": [557, 660]
    }, {
        "id": 69,
        "name": "Проспект славы",
        "state": 2,
        "coord": [557, 693]
    }, {
        "id": 70,
        "name": "Дунайская",
        "state": 2,
        "coord": [557, 722]
    }, {
        "id": 71,
        "name": "Шушары",
        "state": 2,
        "coord": [557, 753]
    }, {
        "id": 72,
        "name": "Юго-западная",
        "state": 2,
        "coord": [186, 660]
    }, {
        "id": 73,
        "name": "Путиловская",
        "state": 2,
        "coord": [233, 614],
        "style": {
            "margin": [8, -5]
        }
    }, {
        "id": 74,
        "name": "Броневая",
        "state": 2,
        "coord": [294, 597],
        "style": {
            "margin": [8, -5]
        }
    }, {
        "id": 75,
        "name": "Заставская",
        "state": 2,
        "coord": [354, 580]
    }, {
        "id": 76,
        "name": "Боровая",
        "state": 2,
        "coord": [408, 542]
    }, {
        "id": 77,
        "name": "Обводной канал 2",
        "state": 2,
        "coord": [448, 500]
    }
]